<svg width="20" height="20" viewBox="0 0 85 58" fill="none" xmlns="http://www.w3.org/2000/svg">
<g clip-path="url(#clip0_810_82)">
<path d="M29.2277 7.70898C28.2484 10.4653 27.2712 13.2217 26.2919 15.9759C24.235 17.3416 22.1843 18.7156 20.1169 20.0625C14.6408 23.682 9.88659 29.8223 6.34396 34.8096C3.8727 38.2894 1.36378 50.0445 9.52667 49.517C12.6885 49.2418 15.8461 48.9228 19.0058 48.6101C19.3573 51.5415 19.8072 54.4021 20.707 57.2273C17.7377 57.2565 14.7684 57.2919 11.7991 57.2815C7.8422 56.9917 4.45651 53.5952 2.42887 50.4386C-0.940079 45.1928 -0.85847 39.3173 3.01268 34.8283C9.34463 27.4871 17.2041 20.0104 24.3312 12.6504C25.9634 11.0033 27.5955 9.35612 29.2298 7.70898H29.2277Z" fill="white"/>
<path d="M43.3367 0.0132601C43.3598 3.20954 43.3828 6.40581 43.4079 9.60209C40.8487 9.6834 38.773 9.95236 36.2787 10.5341C30.5619 12.4293 28.9926 24.7641 28.1283 29.276C27.3206 33.4918 25.7638 47.8782 33.9204 47.3653C37.1387 47.2339 40.3507 47.163 43.5711 47.1526C43.5627 50.4656 43.5439 53.7787 43.5167 57.0917C40.56 57.0917 37.6033 57.1 34.6465 57.1105C22.5351 57.3002 22.3802 37.6409 24.2802 30.3727C26.0086 23.7654 28.5343 16.9913 31.2483 10.5111C32.5331 7.44413 34.0209 2.71748 37.2747 1.13498C39.0617 0.346857 41.3844 -0.0826491 43.3367 0.0132601Z" fill="white"/>
<path d="M52.2802 57.119C50.6774 57.1106 49.8759 57.1065 48.271 57.1023C49.2921 41.7756 48.3714 26.6553 47.3461 11.362C47.2959 10.0776 47.2059 -0.468192 49.8236 0.868281C52.6966 2.33611 53.9229 9.08936 55.0026 12.6463C58.8089 24.3139 64.4754 35.1996 66.0113 47.4885C66.1724 48.877 66.5282 49.7694 67.1768 49.8257C67.8967 49.8883 68.6039 48.7978 68.7065 46.9922C68.9618 36.3922 64.919 27.5852 61.1358 17.9005C60.3678 15.8051 58.3109 12.1751 59.2232 10.0985C59.4513 10.2882 59.7128 10.4759 59.9095 10.6656C62.7993 13.4553 65.1931 17.6711 67.7858 21.1656C72.1926 26.9431 77.993 32.0846 81.9186 38.1561C84.71 42.4741 86.654 49.048 82.969 53.4703C81.837 54.5482 81.1841 55.0215 79.7445 55.7596C86.2794 43.552 71.5544 29.7182 65.62 20.5359C64.8583 19.3496 64.1532 18.3717 63.7388 18.0819C63.2806 17.7587 63.4333 18.5156 64.195 20.0876C68.6437 29.2761 73.3393 37.3596 72.9585 47.8638C72.3621 51.8794 70.4579 57.9592 65.4066 58.0009C61.3931 58.0364 61.8095 50.9704 61.6317 48.5101C60.3427 35.9919 55.7141 24.5641 52.4016 12.5171C52.0124 11.118 51.5541 10.0339 51.1273 9.86289C50.602 9.65022 50.3886 10.7177 50.6188 12.6171C52.4372 27.579 54.0296 42.0446 52.274 57.1169L52.2802 57.119Z" fill="white"/>
</g>
<defs>
<clipPath id="clip0_810_82">
<rect width="84.9957" height="58.0011" fill="white"/>
</clipPath>
</defs>
</svg>
